{
    "total_nodes": 24,
    "dimension": 3,
    "nodes": [
      { "id": 0, "cyclic_id": 0, "cubical_id": [0, 0, 0], "cyclic_neighbors": [-1, -1], "cubical_neighbor": -1, "leaf_set": [2, 1, 23, 5] },
      { "id": 1, "cyclic_id": 1, "cubical_id": [0, 0, 0], "cyclic_neighbors": [3, -1], "cubical_neighbor": 9, "leaf_set": [0, 2, 23, 5] },
      { "id": 2, "cyclic_id": 2, "cubical_id": [0, 0, 0], "cyclic_neighbors": [4, -1], "cubical_neighbor": 22, "leaf_set": [1, 0, 23, 5] },

      { "id": 3, "cyclic_id": 0, "cubical_id": [0, 0, 1], "cyclic_neighbors": [-1, -1], "cubical_neighbor": -1, "leaf_set": [5, 4, 2, 8] },
      { "id": 4, "cyclic_id": 1, "cubical_id": [0, 0, 1], "cyclic_neighbors": [6, 0], "cubical_neighbor": 9, "leaf_set": [3, 5, 2, 8] },
      { "id": 5, "cyclic_id": 2, "cubical_id": [0, 0, 1], "cyclic_neighbors": [7, 1], "cubical_neighbor": 22, "leaf_set": [4, 3, 2, 8] },

      { "id": 6, "cyclic_id": 0, "cubical_id": [0, 1, 0], "cyclic_neighbors": [-1, -1], "cubical_neighbor": -1, "leaf_set": [8, 7, 5, 11] },
      { "id": 7, "cyclic_id": 1, "cubical_id": [0, 1, 0], "cyclic_neighbors": [9, 3], "cubical_neighbor": 3, "leaf_set": [6, 8, 5, 11] },
      { "id": 8, "cyclic_id": 2, "cubical_id": [0, 1, 0], "cyclic_neighbors": [10, 4], "cubical_neighbor": 22, "leaf_set": [7, 6, 5, 11] },
      
      { "id": 9, "cyclic_id": 0, "cubical_id": [0, 1, 1], "cyclic_neighbors": [-1, -1], "cubical_neighbor": -1, "leaf_set": [11, 10, 8, 14] },
      { "id": 10, "cyclic_id": 1, "cubical_id": [0, 1, 1], "cyclic_neighbors": [12, 6], "cubical_neighbor": 3, "leaf_set": [9, 11, 8, 14] },
      { "id": 11, "cyclic_id": 2, "cubical_id": [0, 1, 1], "cyclic_neighbors": [13, 7], "cubical_neighbor": 22, "leaf_set": [10, 9, 8, 14] },
      
      { "id": 12, "cyclic_id": 0, "cubical_id": [1, 0, 0], "cyclic_neighbors": [-1, -1], "cubical_neighbor": -1, "leaf_set": [14, 13, 11, 17] },
      { "id": 13, "cyclic_id": 1, "cubical_id": [1, 0, 0], "cyclic_neighbors": [15, 9], "cubical_neighbor": 21, "leaf_set": [12, 14, 11, 17] },
      { "id": 14, "cyclic_id": 2, "cubical_id": [1, 0, 0], "cyclic_neighbors": [16, 10], "cubical_neighbor": 10, "leaf_set": [13, 12, 11, 17] },
      
      { "id": 15, "cyclic_id": 0, "cubical_id": [1, 0, 1], "cyclic_neighbors": [-1, -1], "cubical_neighbor": -1, "leaf_set": [17, 16, 14, 20] },
      { "id": 16, "cyclic_id": 1, "cubical_id": [1, 0, 1], "cyclic_neighbors": [18, 12], "cubical_neighbor": 21, "leaf_set": [15, 17, 14, 20] },
      { "id": 17, "cyclic_id": 2, "cubical_id": [1, 0, 1], "cyclic_neighbors": [19, 13], "cubical_neighbor": 10, "leaf_set": [16, 15, 14, 20] },
      
      { "id": 18, "cyclic_id": 0, "cubical_id": [1, 1, 0], "cyclic_neighbors": [-1, -1], "cubical_neighbor": -1, "leaf_set": [20, 19, 17, 23] },
      { "id": 19, "cyclic_id": 1, "cubical_id": [1, 1, 0], "cyclic_neighbors": [21, 15], "cubical_neighbor": 15, "leaf_set": [18, 20, 17, 23] },
      { "id": 20, "cyclic_id": 2, "cubical_id": [1, 1, 0], "cyclic_neighbors": [22, 16], "cubical_neighbor": 10, "leaf_set": [19, 18, 17, 23] },
      
      { "id": 21, "cyclic_id": 0, "cubical_id": [1, 1, 1], "cyclic_neighbors": [-1, -1], "cubical_neighbor": -1, "leaf_set": [23, 22, 20, 2] },
      { "id": 22, "cyclic_id": 1, "cubical_id": [1, 1, 1], "cyclic_neighbors": [-1, 18], "cubical_neighbor": 15, "leaf_set": [21, 23, 20, 2] },
      { "id": 23, "cyclic_id": 2, "cubical_id": [1, 1, 1], "cyclic_neighbors": [-1, 29], "cubical_neighbor": 10, "leaf_set": [22, 21, 20, 2] }
    ]
  }
  